module article_service

go 1.12

require (
	cloud.google.com/go v0.43.0 // indirect
	github.com/DATA-DOG/go-sqlmock v1.3.3
	github.com/golang/protobuf v1.3.2
	github.com/gomodule/redigo v2.0.0+incompatible
	github.com/google/pprof v0.0.0-20190723021845-34ac40c74b70 // indirect
	github.com/graph-gophers/graphql-go v0.0.0-20190724201507-010347b5f9e6 // indirect
	github.com/hashicorp/golang-lru v0.5.3 // indirect
	github.com/joho/godotenv v1.3.0
	github.com/konsorten/go-windows-terminal-sequences v1.0.2 // indirect
	github.com/kr/pty v1.1.8 // indirect
	github.com/lib/pq v1.2.0
	github.com/satori/go.uuid v1.2.0
	github.com/satori/uuid v1.2.0
	github.com/sirupsen/logrus v1.4.2
	github.com/stretchr/objx v0.2.0 // indirect
	github.com/stretchr/testify v1.3.0
	golang.org/x/crypto v0.0.0-20190701094942-4def268fd1a4 // indirect
	golang.org/x/exp v0.0.0-20190718202018-cfdd5522f6f6 // indirect
	golang.org/x/image v0.0.0-20190729225735-1bd0cf576493 // indirect
	golang.org/x/mobile v0.0.0-20190719004257-d2bd2a29d028 // indirect
	golang.org/x/net v0.0.0-20190724013045-ca1201d0de80 // indirect
	golang.org/x/sys v0.0.0-20190730183949-1393eb018365 // indirect
	golang.org/x/tools v0.0.0-20190730215328-ed3277de2799 // indirect
	google.golang.org/grpc v1.22.1
	honnef.co/go/tools v0.0.1-2019.2.2 // indirect
)
